/home/divya/secondary_sales_new/secondary_sales/build/../core/src/main/java/com/squer/platform/security/ServiceLocator.java
/home/divya/secondary_sales_new/secondary_sales/build/../core/src/main/java/com/squer/platform/core/Lov.java
/home/divya/secondary_sales_new/secondary_sales/build/../core/src/main/java/com/squer/platform/security/reference/UserEntityReference.java
/home/divya/secondary_sales_new/secondary_sales/build/../core/src/main/java/com/squer/platform/security/model/UserEntityModel.java
/home/divya/secondary_sales_new/secondary_sales/build/../core/src/main/java/com/squer/platform/UserLovConstants.java
/home/divya/secondary_sales_new/secondary_sales/build/../core/src/main/java/com/squer/platform/core/reference/CounterReference.java
/home/divya/secondary_sales_new/secondary_sales/build/../core/src/main/java/com/squer/platform/core/reference/AppConfigReference.java
/home/divya/secondary_sales_new/secondary_sales/build/../core/src/main/java/com/squer/platform/persistence/ReferenceUtil.java
/home/divya/secondary_sales_new/secondary_sales/build/../core/src/main/java/com/squer/core/registry/CoreSystemProperties.java
/home/divya/secondary_sales_new/secondary_sales/build/../core/src/main/java/com/squer/platform/persistence/dao/SqlDao.java
/home/divya/secondary_sales_new/secondary_sales/build/../core/src/main/java/com/squer/platform/persistence/dao/MongoDao.java
/home/divya/secondary_sales_new/secondary_sales/build/../core/src/main/java/com/squer/platform/persistence/impl/RepositoryImpl.java
/home/divya/secondary_sales_new/secondary_sales/build/../core/src/main/java/com/squer/platform/security/SquerPrincipal.java
/home/divya/secondary_sales_new/secondary_sales/build/../core/src/main/java/com/squer/platform/meta/ReferenceMetaUtil.java
/home/divya/secondary_sales_new/secondary_sales/build/../core/src/main/java/com/squer/platform/core/reference/UserLovReference.java
/home/divya/secondary_sales_new/secondary_sales/build/../core/src/main/java/com/squer/platform/core/reference/SystemLovReference.java
/home/divya/secondary_sales_new/secondary_sales/build/../core/src/main/java/com/squer/platform/persistence/FinderQuery.java
/home/divya/secondary_sales_new/secondary_sales/build/../core/src/main/java/com/squer/platform/persistence/impl/ReferenceTypeHandler.java
/home/divya/secondary_sales_new/secondary_sales/build/../core/src/main/java/com/squer/platform/persistence/dao/PageableList.java
/home/divya/secondary_sales_new/secondary_sales/build/../core/src/main/java/com/squer/platform/core/Counter.java
/home/divya/secondary_sales_new/secondary_sales/build/../core/src/main/java/com/squer/platform/security/SecurityRole.java
/home/divya/secondary_sales_new/secondary_sales/build/../core/src/main/java/com/squer/platform/persistence/Delegates.java
/home/divya/secondary_sales_new/secondary_sales/build/../core/src/main/java/com/squer/core/registry/CoreDelegates.java
/home/divya/secondary_sales_new/secondary_sales/build/../core/src/main/java/com/squer/platform/persistence/impl/BaseModelImpl.java
/home/divya/secondary_sales_new/secondary_sales/build/../core/src/main/java/com/squer/platform/persistence/dao/PagedCriteriaMap.java
/home/divya/secondary_sales_new/secondary_sales/build/../core/src/main/java/com/squer/platform/persistence/dao/CriteriaMap.java
/home/divya/secondary_sales_new/secondary_sales/build/../core/src/main/java/com/squer/platform/core/AppConfig.java
/home/divya/secondary_sales_new/secondary_sales/build/../core/src/main/java/com/squer/platform/persistence/impl/PlatformDelegates.java
/home/divya/secondary_sales_new/secondary_sales/build/../core/src/main/java/com/squer/platform/security/UserEntity.java
/home/divya/secondary_sales_new/secondary_sales/build/../core/src/main/java/com/squer/platform/persistence/CounterUtil.java
/home/divya/secondary_sales_new/secondary_sales/build/../core/src/main/java/com/squer/platform/security/SecurityPrivilege.java
/home/divya/secondary_sales_new/secondary_sales/build/../core/src/main/java/com/squer/platform/CoreLogger.java
/home/divya/secondary_sales_new/secondary_sales/build/../core/src/main/java/com/squer/platform/core/UserLov.java
/home/divya/secondary_sales_new/secondary_sales/build/../core/src/main/java/com/squer/platform/meta/ReferenceMeta.java
/home/divya/secondary_sales_new/secondary_sales/build/../core/src/main/java/com/squer/platform/security/AuthCertificate.java
/home/divya/secondary_sales_new/secondary_sales/build/../core/src/main/java/com/squer/platform/core/CommonLov.java
/home/divya/secondary_sales_new/secondary_sales/build/../core/src/main/java/com/squer/platform/SystemLovConstants.java
/home/divya/secondary_sales_new/secondary_sales/build/../core/src/main/java/com/squer/platform/core/CoreQuery.java
/home/divya/secondary_sales_new/secondary_sales/build/../core/src/main/java/com/squer/platform/core/SystemLov.java
/home/divya/secondary_sales_new/secondary_sales/build/../core/src/main/java/com/squer/platform/persistence/BaseModel.java
/home/divya/secondary_sales_new/secondary_sales/build/../core/src/main/java/com/squer/platform/CoreSystemLovs.java
/home/divya/secondary_sales_new/secondary_sales/build/../core/src/main/java/com/squer/platform/persistence/Repository.java
/home/divya/secondary_sales_new/secondary_sales/build/../core/src/main/java/com/squer/platform/persistence/impl/AdhocQuery.java
/home/divya/secondary_sales_new/secondary_sales/build/../core/src/main/java/com/squer/platform/security/reference/SecurityRoleReference.java
/home/divya/secondary_sales_new/secondary_sales/build/../core/src/main/java/com/squer/platform/persistence/dao/MongoDatasource.java
/home/divya/secondary_sales_new/secondary_sales/build/../core/src/main/java/com/squer/platform/persistence/EntityUtil.java
/home/divya/secondary_sales_new/secondary_sales/build/../core/src/main/java/com/squer/platform/security/AuthenticationHandler.java
/home/divya/secondary_sales_new/secondary_sales/build/../core/src/main/java/com/squer/platform/security/SecurityQuery.java
/home/divya/secondary_sales_new/secondary_sales/build/../core/src/main/java/com/squer/platform/security/reference/SecurityPrivilegeReference.java
/home/divya/secondary_sales_new/secondary_sales/build/../core/src/main/java/com/squer/platform/persistence/dao/QueryCondition.java
