com/squer/platform/scheduler/entity/reference/ScheduleEntityReference.class
com/squer/platform/registry/SchedulerQuery.class
com/squer/platform/scheduler/model/JobModelImpl.class
com/squer/platform/scheduler/textui/SchedulerEngine.class
com/squer/platform/scheduler/entity/ScheduleJob.class
com/squer/platform/scheduler/entity/ScheduleEntity.class
com/squer/platform/scheduler/entity/reference/ScheduleJobReference.class
com/squer/platform/registry/SchedulerDelegates.class
com/squer/platform/scheduler/JobPickerJob.class
com/squer/platform/scheduler/SchedulerLogger.class
